20141129 ||| #
http://en.wiktionary.org/wiki/User:Matthias_Buchmeier ||| #
गिनतारा ||| abacus
कर्णशुक्ति ||| abalone
परित्यक्त ||| abandoned
बूचड़खाना ||| abattoir
योग्यता ||| ability
आदितः ||| ab
उच्छेदन ||| ablation
अब्राहम ||| Abraham
अब्राहम ||| Abraham
विदेश ||| abroad
अनुपस्थिति ||| absence
दुरूपयोग ||| abuse
अथाह ||| abyss
दर्द ||| ache
अम्ल ||| acid
तेज़ाब ||| acid
बच्छनाभ ||| aconite
अभिनेता ||| actor
अभिनेत्री ||| actress
पता ||| address
प्रवीण ||| adept
अज़ान ||| adhan
वसाणु ||| adipocyte
बिशेषण ||| adjective
वयस्क ||| adult
वयस्कता ||| adulthood
क्रियाविशेषण ||| adverb
सलाह ||| advice
ईसप ||| Aesop
अफ़्ग़ानिस्तान ||| Afghanistan
आक़ा ||| agha
अग्नि ||| Agni
अहमदाबाद ||| Ahmedabad
हवा ||| air
हवा ||| air
विमानतल ||| airport
अजय ||| Ajay
आल्बानियन ||| Albanian
आल्बानियन ||| Albanian
आल्बानियन ||| Albanian
शराब ||| alcohol
daaru ||| ale
सिकन्दर ||| Alexander
बीजगणित ||| algebra
बीजगणित ||| algebra
शैवालि ||| algin
शैवालिनाम्ल ||| alginic
अजनबी ||| alien
सुषान्य ||| alkane
अल्लाह ||| Allah
गली ||| alley
वर्णमाला ||| alphabet
चौलि ||| amaranth
शौकिया ||| amateur
अमेरिका ||| America
अमेरिकन ||| American
ऐंपरसैंड ||| ampersand
एक ||| an
गुदा ||| anal
अनातोली ||| Anatoli
अनातोलिया ||| Anatolia
अनातोली ||| Anatolius
लंगर ||| anchor
ऍन्डरू ||| Andrew
फ़रिश्ता ||| angel
जवाब ||| answer
चींटी ||| ant
अंगारेन्य ||| anthracene
मानवशास्त्र ||| anthropology
विपर्याय ||| antonym
अनुस्वार ||| anusvara
महाधमनी ||| aorta
कपि ||| ape
क्षमा ||| apology
सेब ||| apple
अर्ज़ी ||| application
ख़ूबानी ||| apricot
अप्रैल ||| April
अप्सरा ||| apsara
अरबी ||| Arabic
कलायायिकाम्ल ||| arachidonic
क्षेत्र ||| area
चांदी ||| argent
अर्जेन्टीना ||| Argentina
अर्हन्त ||| arhat
अरस्तु ||| Aristotle
अंकगणित ||| arithmetic
अंकगणितीय ||| arithmetic
बांह ||| arm
हाथकुर्सी ||| armchair
आर्मीनिया ||| Armenia
कवच ||| armor
अरोड़ा ||| Arora
इंतज़ाम ||| arrangement
अभिमान ||| arrogance
तीर ||| arrow
आगज़नी ||| arson
कला ||| art
कला ||| art
लेख ||| article
कलाकार ||| artist
राख ||| ash
राखदानी ||| ashtray
चूतर ||| ass
आसामी ||| Assamese
मदद ||| assistance
क्षुद्रग्रह ||| asteroid
अथीना ||| Athena
हमला ||| attack
कोशिश ||| attempt
ध्यान ||| attention
उल्टे ||| au
कलाकार ||| auteur
लेखक ||| author
स्वतःफेलाशियो ||| autofellatio
शरद् ||| autumn
सहायक ||| auxiliary
अविनाश ||| Avinash
अवधी ||| Awadhi
कुल्हाड़ी ||| axe
अक्षाणु ||| axion
अक्षतंतु ||| axon
आयमारा ||| Aymara
आयमारा ||| Aymara
अय्यावलि ||| Ayyavazhi
अज़ेरी ||| Azeri
नत्ररक्तात ||| azotemia
शिशु ||| baby
पीठ ||| back
सामान ||| baggage
बेकरी ||| bakery
तराज़ू ||| balance
बालकनी ||| balcony
गेंद ||| ball
गेंद ||| ball
गोला ||| ball
गुब्बारा ||| balloon
बॉलपेन ||| ballpoint
बलूची ||| Balochi
बलूचिस्तान ||| Balochistan
केला ||| banana
बांग्लादेश ||| Bangladesh
नोट ||| banknote
बरगत ||| banyan
छाल ||| bark
जौ ||| barley
टोकरी ||| basket
बल्ला ||| bat
लड़ाई ||| battle
बाज़ार ||| bazaar
बाज़ार ||| bazaar
भालो ||| bear
पलंग ||| bed
मधुमक्खी ||| bee
बियर ||| beer
पीछा ||| behind
बेलारूस ||| Belarus
बेलारूसी ||| Belarusian
डकार ||| belch
घंटा ||| bell
पेट ||| belly
पेटी ||| belt
बंगाली ||| Bengali
पान ||| betel
(behtar) ||| better
भाजी ||| bhaji
भारत ||| Bharat
भिलाई ||| Bhilai
साइकिल ||| bicycle
बिंदी ||| bindi
जैवरसायनिकी ||| biochemistry
चिड़िया ||| bird
जन्म ||| birth
जन्मदिन ||| birthday
बिस्कुट ||| biscuit
उभयलैंगिकता ||| bisexuality
मणिपुरी ||| Bishnupriya
ऊँट ||| bishop
द्वयंक ||| bit
कुत्तियाँ ||| bitch
कम्बल ||| blanket
आनन्द ||| bliss
ब्लॉगर ||| blogger
ख़ून ||| blood
नीला ||| blue
नीला ||| blue
नीलबदरी ||| blueberry
कश्ती ||| boat
शरीर ||| body
बॉलीवुड ||| Bollywood
बोलशेविक ||| Bolshevik
बम्बई ||| Bombay
ग़ुलामी ||| bondage
हड्डी ||| bone
हड्डी ||| bone
पुस्तक ||| book
सीमा ||| border
बोरियत ||| boredom
बोसाणु ||| boson
मालिक ||| boss
मालिक ||| boss
मार्ग ||| boulevard
धनुष ||| bow
डिब्बा ||| box
बॉक्सिंग ||| boxing
लड़का ||| boy
बॉयफ़्रेंड ||| boyfriend
बाज़ूबन्द ||| bracelet
कोष्ठक ||| bracket
ब्रह्मा ||| Brahma
ब्राह्मण ||| Brahman
ब्रह्म ||| Brahman
ब्राह्मी ||| Brahmi
मस्तिष्क ||| brain
डाल ||| branch
रोटी ||| bread
नाश्ता ||| breakfast
छाती ||| breast
स्तन ||| breast
ईंट ||| brick
दुलहन ||| bride
पुल ||| bridge
भाई ||| brother
ब्रूनो ||| Bruno
बुल्ला ||| bubble
बाल्टी ||| bucket
बुद्ध ||| Buddha
बौद्ध ||| Buddhist
गोली ||| bullet
शिनकानसेन ||| bullet
भँवर ||| bumblebee
बंगला ||| bungalow
दफ़तर ||| bureau
बुरक़ा ||| burka
ब्रह्मदेशी ||| Burmese
ब्रह्मदेशी ||| Burmese
जलाना ||| burn
जलना ||| burn
जलना ||| burn
डकार ||| burp
बस ||| bus
झाड़ी ||| bush
क़साई ||| butcher
तितली ||| butterfly
गोभी ||| cabbage
सीज़र ||| Caesar
होटल ||| café
केक ||| cake
जन्त्री ||| calendar
बछिया ||| calf
ख़लीफ़ा ||| caliph
ख़िलाफ़त ||| caliphate
चलपुटक ||| Calymmian
कम्बोडिया ||| Cambodia
ऊँट ||| camel
कैमरा ||| camera
? ||| camouflage
नहर ||| canal
कैण्डेला ||| candela
दीपाधार ||| candlestick
श्वानीय ||| canine
तोप ||| cannon
टोपी ||| cap
सामर्थ्य ||| capacity
राजधानी ||| capital
पूंजीवाद ||| capitalism
कापुचीनो ||| cappuccino
गाड़ी ||| car
कैरमेल ||| caramel
प्रांगिव ||| carbinol
कार्ड ||| card
ताश ||| card
कार्ल ||| Carl
गिलीम ||| carpet
रेलगाड़ी ||| carriage
गाड़ी ||| carriage
गाजर ||| carrot
उपास्थि ||| cartilage
कार्टून ||| cartoon
वर्ण ||| caste
बिल्ली ||| cat
बिल्ली ||| cat
आपत ||| catastrophe
वर्ग ||| category
सावधानी ||| caution
गुफा ||| cave
छत ||| ceiling
केंद्र ||| center
केंद्र ||| center
शति- ||| centi-
सेंटीमीटर ||| centimetre
ग्रीवा ||| cervix
चादर ||| chador
सिलसिला ||| chain
कुरसी ||| chair
चाॅक ||| chalk
अवसर ||| chance
सम्भावना ||| chance
झाड़ ||| chandelier
बदलना ||| change
चपाती ||| chapati
अध्याय ||| chapter
छौंक ||| chaunk
गाल ||| cheek
पनीर ||| cheese
चीता ||| cheetah
रसायन ||| chemical
चिरोकी ||| Cherokee
शतरंज ||| chess
चिवावा ||| Chihuahua
बच्चा ||| child
बच्चा ||| child
बचपन ||| childhood
बचपन ||| childhood
ठुड्डी ||| chin
चीन ||| China
चीनी ||| Chinese
चीनी ||| Chinese
चीनी ||| Chinese
चुनाव ||| choice
पसंद ||| choice
मसीह ||| Christ
मसीह ||| Christ
क्रिसमस ||| Christmas
वर्णकाणु ||| chromocyte
चटनी ||| chutney
सिगरेट ||| cigarette
सिंड्रेला ||| Cinderella
सिनेमा ||| cinema
चक्र ||| circle
नागरिक ||| citizen
नागरिकता ||| citizenship
शहर ||| city
क्लास ||| class
मृत्तिका ||| clay
क्लर्क ||| clerk
जलवायु ||| climate
क्लिनिक ||| clinic
भगनासा ||| clitoris
घड़ी ||| clock
कपड़ा ||| cloth
कपड़े ||| clothes
मेघ ||| cloud
तिपतिया ||| clover
कोयला ||| coal
समधी ||| co-father-in-law
क़हवा ||| coffee
ताबूत ||| coffin
कोला ||| cola
कॉलेज ||| college
उपनिवेशवाद ||| colonialism
कॉलोनी ||| colony
रंग ||| color
कंघी ||| comb
dhairya ||| comfort
आज्ञा ||| commandment
कहना ||| comment
व्यापार ||| commerce
बाज़ारीकरण ||| commodify
सन्देश ||| communication
संचार ||| communication
साम्यवाद ||| communism
डिब्बा ||| compartment
योग्यता ||| competency
प्रतियोगिता ||| competition
उलहना ||| complaint
संगणक ||| computer
कॉन्सर्ट ||| concert
कैंडी ||| confectionery
यक़ीन ||| confidence
आग ||| conflagration
कन्फ्यूशियस ||| Confucius
गांजी ||| congee
व्यंजन ||| consonant
इमारत ||| construction
संपर्क ||| contact
संविदा ||| contract
niyantran ||| control
बातचीत ||| conversation
रसोइया ||| cook
क़ुली ||| coolie
प्रति ||| copy
प्रतिलिपि ||| copy
प्रति ||| copy
कोना ||| corner
लाश ||| corpse
बरामदा ||| corridor
गलियारा ||| corridor
भ्रष्टाचार ||| corruption
खांसी ||| cough
गणनीय ||| countable
नक़ल ||| counterfeit
देश ||| country
आंगन ||| courtyard
गाय ||| cow
कौड़ी ||| cowry
केकड़ा ||| crab
क्रिकेट ||| cricket
अपराध ||| crime
मगर ||| crocodile
सलीब ||| cross
गूढ़लेखन ||| cryptography
ककड़ी ||| cucumber
खीरा ||| cucumber
संस्कृति ||| culture
जीरा ||| cumin
कमरबन्द ||| cummerbund
चूत ||| cunt
प्याला ||| cup
अलमारी ||| cupboard
पर्दा ||| curtain
पर्दा ||| curtain
रिवाज ||| custom
सायबॉर्ग ||| cyborg
बाप ||| dad
अब्बा ||| daddy
दाग़िस्तान ||| Dagestan
नाच ||| dance
नृत्यनर्तक ||| dancer
छैल ||| dandy
ख़तरनाक ||| dangerous
डेनिश ||| Danish
दरी ||| Dari
दरी ||| Dari
अंधेरा ||| darkness
तारीख़ ||| date
तारीख़ ||| date
बेटी ||| daughter
उषा ||| dawn
दिन ||| day
दिन ||| day
दिनी-स्वप्न ||| daydream
मृत्यु ||| death
क़र्ज़ ||| debt
दशग्राम ||| decagram
दशि- ||| deci-
हरना ||| defeat
परिभाषा ||| definition
देर ||| delay
दिल्ली ||| Delhi
खुश ||| delight
लोकतंत्र ||| democracy
लोकतंत्र ||| democracy
राक्षस ||| demon
राक्षस ||| demon
डेंटिस्ट ||| dentist
दरवेश ||| Dervish
बंजर ||| desolate
उजाड़ ||| desolate
देवनागरी ||| Devanagari
शैतान ||| devil
ओस ||| dew
धर्म ||| dharma
मात्रा ||| diacritic
उपभाषा ||| dialect
बातचीत ||| dialogue
व्यास ||| diameter
व्यास ||| diameter
हीरा ||| diamond
हीरा ||| diamond
दैनन्दिनी ||| diary
तानाशाही ||| dictatorship
शब्दकोश ||| dictionary
पासा ||| die
आहार ||| diet
फ़र्क़ ||| difference
गरिमा ||| dignity
दीनार ||| dinar
डोंगी ||| dinghy
डायनासोर ||| dinosaur
दिशा ||| direction
महाविनाश ||| disaster
अनबन ||| discord
विवेक ||| discretion
विवेक ||| discretion
प्लेट ||| dish
निस्संक्रामक ||| disinfectant
नफ़रत ||| dislike
दूरी ||| distance
दैवीय ||| divine
तलाक़ ||| divorce
talaak ||| divorce
दिवाली ||| Diwali
डाक्टर ||| doctor
कुत्ता ||| dog
कुत्ता ||| dog
दोहा ||| Doha
गधा ||| donkey
गधा ||| donkey
दरवाज़ा ||| door
कपोत ||| dove
दहेज ||| dowry
दर्जन ||| dozen
घसीटना ||| draw
दराज़ ||| drawer
जटा ||| dreadlocks
सपना ||| dream
पोशाक ||| dress
लार ||| drivel
चालक ||| driver
ऊंट ||| dromedary
सूखा ||| drought
शुल्क ||| duty
chaadar ||| duvet
बारूद ||| dynamite
गरुड ||| eagle
कान ||| ear
धरती ||| earth
धरती ||| earth
पृथ्वी ||| Earth
भूकंप ||| earthquake
पूर्व ||| east
गूंज ||| echo
अर्थशास्त्र ||| economics
कनारा ||| edge
शिक्षा ||| education
शिक्षा ||| education
असर ||| effect
अंडा ||| egg
अंडा ||| egg
बैंगन ||| eggplant
बैंगन ||| eggplant
मिस्र ||| Egypt
ईद ||| Eid
प्रत्यास्थि ||| elastin
कुहनी ||| elbow
चुनाव ||| election
बिजली ||| electricity
विद्युतरसायन ||| electrochemistry
विद्युतचुंबकत्व ||| electromagnetism
हाथी ||| elephant
देव ||| elf
ई-मेल ||| e-mail
दूतावास ||| embassy
शोले ||| ember
शोले ||| ember
भावना ||| emotion
ज्ञानकोष ||| encyclopedia
अंत ||| end
दुश्मन ||| enemy
अभियंता ||| engineer
इंग्लैंड ||| England
अंग्रेज़ी ||| English
कीटविज्ञान ||| entomology
प्रवेश ||| entrance
लिफ़ाफ़ा ||| envelope
पर्यावरण ||| environment
केशलूंचन ||| epilation
समीकरण ||| equation
साम्यावस्था ||| equilibrium
स्तंभन ||| erection
एरिक ||| Eric
ईरोस ||| Eros
निबंध ||| essay
एस्टोनिया ||| Estonia
सनातन ||| eternal
शाम ||| evening
घटना ||| event
नज़र ||| evil
विकास ||| evolution
नमूना ||| example
उदाहरण ||| example
व्यायाम ||| exercise
वर्ज़िश ||| exercise
astitva ||| existence
निकास ||| exit
ख़र्च ||| expenditure
अनुभव ||| experience
अनुभव ||| experience
विशेषज्ञ ||| expert
घातांक ||| exponent
bhavana ||| expression
मौजुद ||| extant
आँख ||| eye
अब्रू ||| eyebrow
पपनी ||| eyelash
पपोटा ||| eyelid
इज़ाफ़ा ||| ezafe
यहेज़क़ेल ||| Ezekiel
चेहरा ||| face
तथ्य ||| fact
कारख़ाना ||| factory
गाँडू ||| fag
नक़ल ||| fake
फ़क़ीर ||| fakir
गर्भनली ||| Fallopian
परिवार ||| family
परिवार ||| family
अकाल ||| famine
किराया ||| fare
खेत ||| farm
किसान ||| farmer
फ़ैशन ||| fashion
फ़तह ||| Fatah
क़िस्मत ||| fate
पिता ||| father
थकान ||| fatigue
ग़लती ||| fault
डर ||| fear
पंख ||| feather
महासंघ ||| federation
नारीवाद ||| feminism
सौफ ||| fennel
मेथी ||| fenugreek
बुख़ार ||| fever
क्षेत्र ||| field
पंद्रह ||| fifteen
उंगली ||| finger
नाख़ुन ||| fingernail
आग ||| fire
अग्निशमक ||| firefighter
मछली ||| fish
मुट्ठी ||| fist
मिर्गी ||| fit
झंडा ||| flag
लौ ||| flame
टार्च ||| flashlight
लचीला ||| flexible
द्विमानित्र ||| flip-flop
बाढ़ ||| flood
फ़र्श ||| floor
आटा ||| flour
फूल ||| flower
रवानी ||| fluency
बांसुरी ||| flute
मक्खी ||| fly
कुहरा ||| fog
डाक ||| foil
खाना ||| food
मूर्ख ||| fool
पैर ||| foot
छैल ||| fop
ज़ोर ||| force
माथा ||| forehead
विदेशी ||| foreigner
जंगल ||| forest
काँटा ||| fork
अर्ज़ी ||| form
किला ||| fort
लोमड़ी ||| fox
महक ||| fragrance
लोबान ||| frankincense
मुफ़्त ||| free
आज़ादी ||| freedom
फ़्राँसीसी ||| French
शुक्रवार ||| Friday
दोस्त ||| friend
दोस्ती ||| friendship
मेंढक ||| frog
फल ||| fruit
मज़ा ||| fun
भविष्य ||| future
बड़बड़ाना ||| gabble
विदुग्धधु ||| galactose
खेल ||| game
गणेश ||| Ganesha
गंगा ||| Ganges
कचरा ||| garbage
बाग़ीचा ||| garden
लहसुन ||| garlic
गे ||| gay
मणि ||| gem
मणि ||| gemstone
लिंग ||| gender
लिंग ||| gender
भूगोल ||| geography
भूविज्ञान ||| geology
भूभौतिकी ||| geophysics
जर्मनी ||| Germany
ग़ज़ल ||| ghazal
घी ||| ghee
अदरक ||| ginger
जिराफ़ ||| giraffe
लड़की ||| girl
सहेली ||| girlfriend
गर्लफ़्रेंड ||| girlfriend
ग्लास ||| glass
bhumandikaran ||| globalisation
यश ||| glory
प्रतिष्ठा ||| glory
दस्ताना ||| glove
गोंद ||| glue
बकरी ||| goat
देवता ||| god
ईश्वर ||| God
सोना ||| gold
गोल्फ़ ||| golf
अच्छा ||| good
उत्तम ||| good
उत्तम ||| good
उत्तम ||| good
उत्तम ||| good
उत्तम ||| good
उत्तम ||| good
हंस ||| goose
गोर्बाचोफ ||| Gorbachev
गोरिल्ला ||| gorilla
इंजील ||| gospel
इंजील ||| gospel
गप-शप ||| gossip
सरकार ||| government
राज्यपाल ||| governor
ग्राम ||| gram
चराक ||| graminivore
व्याकरण ||| grammar
व्याकरण ||| grammar
दादा ||| grandfather
दादी ||| grandmother
ग्रेफीन ||| graphene
घास ||| grass
आभार ||| gratitude
क़ब्र ||| grave
क़ब्रिस्तान ||| graveyard
गुरुत्वाणु ||| graviton
चरबी ||| grease
लालच ||| greed
हरा ||| green
जाली ||| grid
दूःख ||| grief
पीसना ||| grind
pansari ||| grocer
दूल्हा ||| groom
ज़मीन ||| ground
ज़मीन ||| ground
मेहमान ||| guest
अपराध ||| guilt
गिटार ||| guitar
गुजराती ||| Gujarati
गुज्जर ||| Gujjar
खाड़ी ||| gulf
बंदूक ||| gun
बारूद ||| gunpowder
गुरु ||| guru
हैकर ||| hacker
बाल ||| hair
बाल ||| hair
बाल ||| hair
हज्ज ||| hajj
आधा ||| half
हम्लेट ||| Hamlet
हथौड़ा ||| hammer
झूला ||| hammock
हैम्स्टर ||| hamster
हाथ ||| hand
रूमाल ||| handkerchief
उतरन ||| hand-me-down
हनुमान ||| Hanuman
ख़ुशी ||| happiness
खारगोश ||| hare
महल-सरा ||| harem
नुक़सान ||| harm
हरियाणवी ||| Haryanvi
गांजा ||| hashish
टोपी ||| hat
घृणा ||| hatred
हेज़लनट ||| hazelnut
सिर ||| head
सिरदर्द ||| headache
तबीयत ||| health
दिल ||| heart
दिल ||| heart
गरमी ||| heat
स्वर्ग ||| heaven
इब्रानी ||| Hebrew
शत- ||| hecto-
एड़ी ||| heel
kya ||| hello
मदद ||| help
मुर्गी ||| hen
मेंहदी ||| henna
विधर्मी ||| heretic
नायक ||| hero
हिरोडोटस ||| Herodotus
नायिका ||| heroine
विषमलैंगिकता ||| heterosexuality
पहाड़ी ||| hill
हिलेरी ||| Hillary
उसे ||| him
हिन्दी ||| Hindi
हिन्दू ||| Hindu
हिन्दुस्तान ||| Hindustan
हिन्दुस्तान ||| Hindustan
हिन्दुस्तानी ||| Hindustani
हिन्दुस्तानी ||| Hindustani
ऐतिहासिक ||| historic
इतिहास ||| history
इतिहास ||| history
हिटलर ||| Hitler
शौक़ ||| hobby
सूअर ||| hog
होली ||| Holi
छुट्टी ||| holiday
चुट्टी ||| holiday
छुट्टी ||| holiday
पवित्र ||| holy
घर ||| home
घरवाला ||| homeowner
गृहनगर ||| hometown
मधु ||| honey
छत्ता ||| honeycomb
गुंडा ||| hoodlum
हुक़्क़ा ||| hookah
गुंडा ||| hooligan
गुंडागर्दी ||| hooliganism
आशा ||| hope
सींग ||| horn
घोड़ा ||| horse
रुग्णालय ||| hospital
होटल ||| hotel
घंटा ||| hour
घर ||| house
मानवतावाद ||| humanism
मानवता ||| humankind
लाख ||| hundred
भूख ||| hunger
शिकार ||| hunt
पति ||| husband
लकड़बग्घा ||| hyena
स्वच्छता ||| hygiene
इब्रीक़ ||| ibrik
बरफ़ ||| ice
विचारधारा ||| ideology
कामचोर ||| idler
अज्ञान ||| ignorance
bimari ||| illness
आप्रवासी ||| immigrant
अवतार ||| incarnation
बढाई ||| increase
बढाई ||| increase
पदस्थ ||| incumbent
स्वतंत्रता ||| independence
भारत ||| India
इंडियानापोलिस ||| Indianapolis
मैना ||| Indian
व्यक्ति ||| individual
इन्द्र ||| Indra
उद्योग ||| industry
Kukriya ||| inept
शिशु ||| infant
संक्रामक ||| infectious
नास्तिक ||| infidel
अनंत ||| infinity
जानकारी ||| information
चोट ||| injury
कीड़ा ||| insect
उलटा ||| inside
इरादा ||| intention
संवाद ||| intercourse
सम्भोग ||| intercourse
अनुवादक ||| interpreter
अंतरंगता ||| intimacy
ईरान ||| Iran
ईरानी ||| Iranian
इरुमेशियो ||| irrumation
इस्लामाबाद ||| Islamabad
द्वीप ||| island
-वाद ||| -ism
इस्राइल ||| Israel
इस्तांबुल ||| Istanbul
इवान ||| Ivan
सियार ||| jackal
याकूब ||| Jacob
जाफराबादी ||| Jafarabadi
जहन्नम ||| Jahannam
जापान ||| Japan
जापानी ||| Japanese
चॉपसुई ||| japchae
चमेली ||| jasmine
यवद्वीपी ||| Javanese
जबड़ा ||| jaw
जैज़ ||| jazz
ईसा ||| Jesus
यहूदी ||| Jew
यहूदिनी ||| Jewess
जिहाद ||| jihad
मुजाहिद ||| jihadist
जीन ||| jinn
काम ||| job
काम ||| job
पत्रकार ||| journalist
यात्रा ||| journey
हर्ष ||| joy
जुबा ||| Juba
रस ||| juice
रस ||| juice
जूलियट ||| Juliet
जंगल ||| jungle
कंगारू ||| kangaroo
कराओके ||| karaoke
कश्मीरी ||| Kashmiri
काठमांडू ||| Kathmandu
कबाब ||| kebab
केचप ||| ketchup
ताली ||| key
ख़ाक़ान ||| khagan
ख्रुश्चेव ||| Khrushchev
ख़ुतबा ||| khutbah
ollu ||| kid
गुर्दा ||| kidney
किलो ||| kilo
सहस्र- ||| kilo-
दया ||| kind
तरह ||| kind
दया ||| kindness
राजा ||| king
राज्य ||| kingdom
रसोईघर ||| kitchen
पतंग ||| kite
घुटना ||| knee
छुरी ||| knife
घोड़ा ||| knight
ज्ञान ||| knowledge
कोअला ||| koala
कोमी ||| Komi
कोंकणी ||| Konkani
कोरिया ||| Korea
कृष्ण ||| Krishna
कृष्ण ||| Krishna
कृष्ण ||| Krishna
कुना ||| kuna
कुर्दी ||| Kurdish
क़ुर्दिस्तान ||| Kurdistan
कुरता ||| kurta
क्वास ||| kvass
क्यूशू ||| Kyushu
कमी ||| lack
लद्दाख़ ||| Ladakh
सीढ़ी ||| ladder
महिला ||| lady
झील ||| lake
लाख ||| lakh
बर्रा ||| lamb
दिया ||| lamp
भूमि ||| land
स्तान ||| -land
गली ||| lane
भाषा ||| language
भाषा-परिवार ||| language
स्वरग्रंथि ||| larynx
पिछला ||| last
स्वर्गीय ||| late
लैटियम ||| Latium
लातवियाई ||| Latvian
प्रशंसनीय ||| laudable
क़ानून ||| law
वकील ||| lawyer
नेता ||| leader
पत्ता ||| leaf
कूदना ||| leap
ऐयाशी ||| lechery
अंडपीति ||| lecithin
प्राध्यापक ||| lecturer
अवकाश ||| leisure
नींबू ||| lemon
लंबाई ||| length
लेनिनवाद ||| Leninism
दाल ||| lentil
तेन्दुआ ||| leopard
लेस्बियन ||| lesbian
कम ||| less
पाठ ||| lesson
पाठ ||| lesson
अक्षर ||| letter
ख़त ||| letter
श्वेताणु ||| leukocyte
झूठा ||| liar
मुक्ति ||| liberation
आज़ादी ||| liberty
पुस्तकालय ||| library
लीबिया ||| Libya
ढक्कन ||| lid
झूठ ||| lie
ज़िंदगी ||| life
प्रकाश ||| light
रोशनी ||| light
(jalana) ||| light
रोशनीघर ||| lighthouse
बकायन ||| lilac
बकायन ||| lilac
aseem ||| limitless
रेखा ||| line
पंक्ति ||| line
भाषाविज्ञान ||| linguistics
सिंह ||| lion
होंठ ||| lip
लिस्ट ||| list
कलेजा ||| liver
ताला ||| lock
-ज्ञान ||| -logy
लॉलीवुड ||| Lollywood
लंदन ||| London
अकेलापन ||| loneliness
लूट ||| loot
लोटा ||| lota
कमल ||| lotus
लुईज़ियाना ||| Louisiana
जूँ ||| louse
गुंडा ||| lout
प्यार ||| love
प्यार ||| love
भाग्य ||| luck
सामान ||| luggage
फेफड़ा ||| lung
शराबी ||| lush
लीची ||| lychee
लसीकाणु ||| lymphocyte
मा ||| ma
महोदया ||| madam
मद्रसा ||| madrasah
पत्रिका ||| magazine
महावत ||| mahout
नौकरानी ||| maid
लड़की ||| maid
डाक ||| mail
अधिकांश ||| majority
बनाना ||| make
मालागासी ||| Malagasy
मलय ||| Malay
मलय ||| Malay
मलय ||| Malay
मलीका ||| Malika
मैमथ ||| mammoth
आदमी ||| man
आदमी ||| man
आम ||| mango
मानवता ||| mankind
मर्दानगी ||| manliness
नक्शा ||| map
मराठी ||| Marathi
मराठी ||| Marathi
मराठा ||| Marathi
गांजा ||| marijuana
मार्कर ||| marker
बाज़ार ||| market
विपणन ||| marketing
शादी ||| marriage
शादी ||| marriage
मार्स ||| Mars
शहीद ||| martyr
मार्क्सवाद ||| Marxism
मार्क्सवाद ||| Marxism
मैरी ||| Mary
मर्दानगी ||| masculinity
हस्तमैथुन ||| masturbation
मात्रा ||| matra
बात ||| matter
मॅथियु ||| Matthew
मन ||| maund
महापौर ||| mayor
मायोत ||| Mayotte
मतलब ||| meaning
गोश्त ||| meat
मिस्त्री ||| mechanic
असिताणु ||| melanocyte
नाटक ||| melodrama
स्मृति ||| memory
लोग ||| men
मध्याणु ||| meson
संदेश ||| message
मसीह ||| Messiah
धातु ||| metal
सूक्ष्माणु ||| microcyte
मध्य ||| middle
dai ||| midwife
दूध ||| milk
दूधवाला ||| milkman
खीर ||| milkshake
आकाशगंगा ||| Milky
चक्की ||| mill
सहस्रि- ||| milli-
अनुकरण ||| mimicry
मीनार ||| minaret
मन ||| mind
सुरंग ||| mine
खनिज ||| mineral
wafadar ||| minion
टकसाल ||| mint
मिनट ||| minute
कीचड़ ||| mire
दर्पण ||| mirror
गर्भपात ||| miscarriage
शरारत ||| mischief
ग़लती ||| mistake
विशेषण ||| modifier
गीला ||| moist
तिल ||| mole
पल ||| moment
राजतन्त्र ||| monarchy
मठ ||| monastery
सोमवार ||| Monday
पैसा ||| money
मंगोलिया ||| Mongolia
बंदर ||| monkey
राक्षस ||| monster
महीना ||| month
स्वभाव ||| mood
चांद ||| moon
चन्द्रमा ||| Moon
सवेरा ||| morning
ओखली ||| mortar
मास्को ||| Moscow
मूसा ||| Moses
सर्वाधिक ||| most
माता ||| mother
पहाड़ ||| mountain
मूँछ ||| moustache
मुँह ||| mouth
मुद्रा ||| mudra
मुअज़्ज़िन ||| muezzin
मुफ़्ती ||| mufti
मुहम्मद ||| Muhammad
मुजाहिद ||| mujahid
क्रोरेपत्ति ||| multimillionaire
माँ ||| mum
अम्माँ ||| mummy
मुरब्बा ||| murabba
पेशी ||| muscle
संग्रहालय ||| museum
संगीत ||| music
संगीतकार ||| musician
रहस्य ||| mystery
नादिया ||| Nadia
नाख़ुन ||| nail
कील ||| nail
नाम ||| name
नैपकिन ||| napkin
नटराज ||| Nataraja
प्रकृति ||| nature
स्वभाव ||| nature
प्रकृति ||| nature
नाभि ||| navel
नीहारिका ||| nebula
नेकटाई ||| necktie
ज़रूरत ||| need
पड़ोसी ||| neighbour
तरणक ||| nekton
नेपाल ||| Nepal
नेपाली ||| Nepali
भतीजा ||| nephew
नस ||| nerve
नया ||| new
नेपालभाषा ||| Newari
ख़बर ||| news
अख़बार ||| newspaper
भतीजी ||| niece
रात ||| night
दुःस्वप्न ||| nightmare
चूची ||| nipple
नोकिया ||| Nokia
बकवास ||| nonsense
दोपहर ||| noon
nahin ||| nope
उत्तर ||| north
नाक ||| nose
संज्ञा ||| noun
संख्या ||| number
संख्या ||| number
संख्या ||| number
नंबर ||| number
मठवासिनी ||| nun
नुक़्ता ||| nuqta
नर्स ||| nurse
बलूत ||| oak
नखलिस्तान ||| oasis
मेदुरता ||| obesity
चीज़ ||| object
अर्धविकसित ||| obsolete
ओशिआनिया ||| Oceania
अक्तूबर ||| October
गंध ||| odour
दफ़तर ||| office
अधिकारी ||| official
तेल ||| oil
ओलिवर ||| Oliver
पियाज़ ||| onion
नेत्रविज्ञान ||| ophthalmology
विचार ||| opinion
मुखाभिगम ||| oral
नारंगी ||| orange
अंग ||| organ
ओगाज़्म ||| orgasm
सजाना ||| ornament
अनाथ ||| orphan
ऑस्कर ||| Oscar
ऊदबिलाव ||| otter
गतावधिक ||| out
आउटसोर्सिंग ||| outsourcing
उल्लू ||| owl
मल्कियत ||| ownership
ताला ||| padlock
पृष्ठ ||| page
दर्द ||| pain
चित्रकार ||| painter
ऐनक ||| pair
ऐनक ||| pair
ऐनक ||| pair
ऐनक ||| pair
पाकिस्तान ||| Pakistan
पाकिस्तानी ||| Pakistani
महल ||| palace
पालकी ||| palanquin
फ़िलस्तीन ||| Palestine
पालि ||| Pali
हथेली ||| palm
पंचतंत्र ||| Panchatantra
अग्न्याशय ||| pancreas
पैंट ||| pants
काग़ज़ ||| paper
असत्याभास ||| paradox
समानान्तर ||| parallel
पार्सल ||| parcel
माता-पिता ||| parents
बाग़ ||| park
तोता ||| parrot
हिस्सा ||| part
दल ||| party
पार्टी ||| party
गौर ||| Parvati
पाशा ||| pasha
पैसिंजर ||| passenger
पादरी ||| pastor
विकृतिविज्ञान ||| pathology
pakana ||| patronise
पोलेत्त् ||| Paulette
शांति ||| peace
शांति ||| peace
मोर ||| peacock
मूँगफली ||| peanut
नाशपाती ||| pear
मोती ||| pearl
पथ्थर ||| pebble
क़लम ||| pen
पेन्सिल ||| pencil
प्रायद्वीप ||| peninsula
शिश्न ||| penis
चपरासी ||| peon
मिर्च ||| pepper
मूलाधार ||| perineum
काल ||| period
अनुमति ||| permission
पर्सिफ़ोनी ||| Persephone
पर्सेपोलिस ||| Persepolis
फ़ारस ||| Persia
फ़ारसी ||| Persian
मनुष्य ||| person
व्यक्तित्व ||| personality
सूक्ष्मदर्शी ||| perspicacious
लिंगोपासना ||| phallicism
लिंग ||| phallus
फैरो ||| pharaoh
दवाख़ाना ||| pharmacy
दर्शन ||| philosophy
भीति ||| phobia
फ़ोन ||| phone
ध्वन्यणु ||| phonon
फ़ोटो ||| photo
फ़ोटो ||| photograph
फ़ोटोग्रफ़र ||| photographer
पियानो ||| piano
पीचिलीम्यू ||| Pichilemu
चित्र ||| picture
टुकड़ा ||| piece
सूअर ||| pig
कबूतर ||| pigeon
घेंटा ||| piglet
गोली ||| pill
तकिया ||| pillow
दलाल ||| pimp
मुंहासा ||| pimple
पिस्ता ||| pistachio
पिस्ता ||| pistachio
पिज़ा ||| pizza
जगह ||| place
mahamari ||| plague
योजना ||| plan
ग्रह ||| planet
प्लाज़्मा ||| plasma
प्लेट ||| plate
थाली ||| platter
मुमकिन ||| plausible
प्रशंसनीय ||| plausible
खेलनेवाला ||| player
ताश ||| playing
आनन्द ||| pleasure
कृत्तिका ||| Pleiades
हल ||| plough
जेब ||| pocket
कविता ||| poem
काव्य ||| poetry
पोलिस ||| police
पुलिसवाला ||| policeman
थाना ||| police
राजनीतिज्ञ ||| politician
राजनीति ||| politics
प्रदूषण ||| pollution
अनार ||| pomegranate
पूडल ||| poodle
पोप ||| pope
जनसंख्या ||| population
बंदरगाह ||| port
प्रवेशमार्ग ||| portal
पुर्तगाली ||| Portuguese
पोस्टकार्ड ||| postcard
मरणोत्तर ||| post
डाकघर ||| post
आलू ||| potato
कुम्हार ||| potter
ग़रीबी ||| poverty
शक्ति ||| power
शक्ति ||| power
अभ्यास ||| practice
प्रदेश ||| Pradesh
तारीफ़ ||| praise
उपसर्ग ||| prefix
राष्ट्रपति ||| president
आरोह ||| pride
गर्व ||| pride
शहज़ादा ||| prince
निजी ||| private
लूट ||| prize
इनाम ||| prize
प्रक्रिया ||| process
पेशा ||| profession
प्रोफ़ेसर ||| professor
प्रवीणता ||| proficiency
प्रवीणता ||| proficiency
प्रवीण ||| proficient
लाभ ||| profit
प्रोग्राम ||| program
प्रोग्राम ||| program
प्रोग्रामर ||| programmer
सर्वनाम ||| pronoun
उच्चारण ||| pronunciation
उच्चारण ||| pronunciation
नबी ||| prophet
गद्य ||| prose
प्रोस्टेट ||| prostate
वेश्या ||| prostitute
वेश्यावृत्ति ||| prostitution
प्रोभूजिनेद ||| protease
प्रोभूजिन ||| protein
प्रोभूजिन ||| protein
जनता ||| public
कद्दू ||| pumpkin
पण्डित ||| pundit
पण्डित ||| pundit
पण्डित ||| pundit
पंजाबी ||| Punjabi
पंजाबी ||| Punjabi
पंक ||| punk
मुराद ||| purport
चूत ||| pussy
पिरनीज़ ||| Pyrenees
चतुर्भुजीय ||| quadrilateral
चतुर्भुज ||| quadrilateral
दलदल ||| quagmire
झगड़ा ||| quarrel
रानी ||| queen
रानी ||| queen
बेगम ||| queen
रानी ||| queen
सवाल ||| question
प्रश्नचिह्न ||| question
ख़ामोशी ||| quiet
क़ुरान ||| Qur'an
रबी ||| rabbi
ख़रगोश ||| rabbit
जातिवाद ||| racism
रेडियो ||| radio
रेडियो ||| radio
बेड़ा ||| raft
राग ||| raga
बारिश ||| rain
राजा ||| rajah
राजस्थानी ||| Rajasthani
मेंढ़ा ||| ram
रमज़ान ||| Ramadan
पाठक ||| reader
कारण ||| reason
नुस्खा ||| recipe
अफ़सोस ||| regret
पुनर्जन्म ||| reincarnation
रिश्तेदार ||| relative
धर्म ||| religion
धर्म ||| religion
दूरी ||| remoteness
प्रतिपादन ||| rendition
जवाब ||| reply
रिपोर्ट ||| report
गणराज्य ||| republic
निवेदन ||| request
ज़रूरत ||| requirement
गृह ||| residence
पदत्याग ||| resign
राल ||| resin
सम्मान ||| respect
ज़िम्मेदारी ||| responsibility
आराम ||| rest
आराम ||| rest
भोजनालय ||| restaurant
प्रकटीकरण ||| revelation
विषमकोण ||| rhombus
तुक ||| rhyme
चावल ||| rice
चावल ||| rice
रिचर्ड ||| Richard
पहेली ||| riddle
अंगूठी ||| ring
नदी ||| river
राम ||| Rāma
सड़क ||| road
रोबोट ||| robot
सूची ||| roll
नामावली ||| roll
बेलन ||| roll
लपेटा ||| roll
लपेटा ||| roll
घुमना ||| roll
बजाना ||| roll
घूमाना ||| roll
लुढ़काना ||| roll
लपेटना ||| roll
रोमानियाई ||| Romanian
रोनाल्ड ||| Ronald
छत ||| roof
हाथी ||| rook
कमरा ||| room
मुर्ग़ा ||| rooster
डोरी ||| rope
गुलाब ||| rose
गुलाब ||| rose
गुलाब ||| rosewater
रोटी ||| roti
रौशना ||| Roxana
रूबल ||| ruble
ग़ालीचा ||| rug
राज ||| rule
रुपया ||| rupee
रूस ||| Russia
दुःख ||| sadness
सुरक्षा ||| safety
केसर ||| saffron
ऋषि ||| sage
साहिब ||| sahib
नमाज़ ||| salat
लार ||| saliva
नमक ||| salt
समोसा ||| samosa
नमूना ||| sample
मंजूरी ||| sanction
रेत ||| sand
चन्दन ||| sandalwood
सैंडविच ||| sandwich
नीलम ||| sapphire
ताना ||| sarcasm
साड़ी ||| sari
शैतान ||| Satan
शनिवार ||| Saturday
चटनी ||| sauce
मियान ||| scabbard
तराज़ू ||| scale
तराज़ू ||| scales
गंध ||| scent
अनुसूची ||| schedule
शहरज़ाद ||| Scheherazade
मनोविदालिता ||| schizophrenia
विद्यालय ||| school
विज्ञान ||| science
वैज्ञानिक ||| scientist
कैंची ||| scissors
स्कूटर ||| scooter
बिच्छू ||| scorpion
बदमाश ||| scoundrel
लिपि ||| script
लिपि ||| script
अंडकोष ||| scrotum
शिल्पकला ||| sculpture
शिल्पकला ||| sculpture
सागर ||| sea
मौसम ||| season
सैकण्ड ||| second
गोपनीयता ||| secrecy
मज़हब ||| sect
सुरक्षा ||| security
शेलेन ||| Selena
वीर्य ||| semen
वाक्य ||| sentence
वाक्य ||| sentence
नौकर ||| servant
सेवा ||| service
तिल ||| sesame
सेवादार ||| sewadar
लिंग ||| sex
लिंगवाद ||| sexism
लैंगिकता ||| sexuality
शाह ||| shah
शैंपू ||| shampoo
आकार ||| shape
बँटना ||| share
शाल ||| shawl
भेड़ ||| sheep
शैख़ ||| sheik
शैख़ ||| sheik
गड़ेरिया ||| shepherd
शिकोकू ||| Shikoku
पोत ||| ship
क़मीज़ ||| shirt
शिव ||| Shiva
जूता ||| shoe
शोगुन ||| shogun
दुकान ||| shop
दुकान ||| shop
दुकानदार ||| shopkeeper
ख़रीदारी ||| shopping
किनारा ||| shore
कमी ||| shortage
लघुकथा ||| short
शोथा ||| Shota
कंधा ||| shoulder
बौछार ||| shower
शावर ||| shower
मन्दिर ||| shrine
सहोदर ||| sibling
तरफ़ ||| side
दर्शन ||| sight
सिख ||| Sikh
ख़ामोशी ||| silence
रेशम ||| silk
चांदी ||| silver
अपराध ||| sin
पाप ||| sin
गुनाह ||| sin
सिन्धी ||| Sindhi
गायक ||| singer
श्रीमान ||| sir
बहन ||| sister
सितार ||| sitar
कुशलता ||| skill
त्वचा ||| skin
स्कर्ट ||| skirt
कपाल ||| skull
आसमान ||| sky
आसमान ||| sky
आसमान ||| sky
कामचोर ||| slacker
स्लाव ||| Slav
दास ||| slave
नारा ||| slogan
बस्ती ||| slum
कुलटा ||| slut
स्मार्टफ़ोन ||| smartphone
गंध ||| smell
मुस्कान ||| smile
धूआँ ||| smoke
साँप ||| snake
बर्फ़ ||| snow
समाजवाद ||| socialism
मोज़ा ||| sock
सोडा ||| soda
सोफ़ा ||| sofa
सोडा ||| soft
सूरज-मण्डली ||| Solar
सैनिक ||| soldier
ठोस ||| solid
सोमाली ||| Somali
सोमालिया ||| Somalia
सोमालीदेश ||| Somaliland
बेटा ||| son
गाना ||| song
भांजा ||| sororal
दुःख ||| sorrow
आत्मा ||| soul
ध्वनी ||| sound
ध्वनी ||| sound
स्रोत ||| source
दक्षिण ||| south
गौरैया ||| sparrow
ऐनक ||| spectacles
भूत ||| specter
गति ||| speed
वर्तनी ||| spelling
शुक्राणु ||| sperm
शुक्राणु ||| spermatozoon
गोला ||| sphere
मकड़ी ||| spider
तिल्ली ||| spleen
चम्मच ||| spoon
वर्ज़िश ||| sport
बसन्त ||| spring
जासूस ||| spy
वर्गाकार ||| square
गिलहरी ||| squirrel
श्रीलंका ||| Sri
धुआँरा ||| stack
इंटरप्लीडर ||| stakeholder
स्तान ||| -stan
तारा ||| star
स्टार्च ||| starch
राज्य ||| state
प्रदेश ||| state
(varnana) ||| statement
स्टेशन ||| station
इस्पात ||| steel
स्टेथोस्कोप ||| stethoscope
पेट ||| stomach
अमाशय ||| stomach
पत्थर ||| stone
पत्थर ||| stone
तिपाई ||| stool
मंज़िल ||| storey
आंधी ||| storm
कहानी ||| story
विदेशी ||| stranger
अजनबी ||| stranger
नदी ||| stream
गली ||| street
शक्ति ||| strength
हड़ताल ||| strike
विद्यार्थी ||| student
पढ़ाई ||| study
स्तूप ||| stupa
अंदाज़ ||| style
पनडुब्बी ||| submarine
पदार्थ ||| substance
सफलता ||| success
चीनी ||| sugar
ईख ||| sugar
आत्महत्या ||| suicide
सुल्तान ||| sultan
ग्रीष्म ||| summer
सूरज ||| sun
सूरज ||| sun
सूर्य ||| sun
सूर्य ||| Sun
रविवार ||| Sunday
सूर्यमुखी ||| sunflower
सतही ||| superficial
महामानव ||| superhuman
सर्वोत्कृष्ट ||| superlative
सुपरस्टार ||| superstar
सर्वोच्च ||| supreme
सूरा ||| sura
कुलनाम ||| surname
चकित ||| surprised
स्वाहिली ||| Swahili
हंस ||| swan
स्वस्तिक ||| swastika
पसीना ||| sweat
शकरकन्द ||| sweet
तलवार ||| sword
पर्याय ||| synonym
सीरिया ||| Syria
सुई ||| syringe
युति-वियुति ||| syzygy
तबला ||| tabla
मेज़ ||| table
ताहिनी ||| tahini
पूंछ ||| tail
दर्ज़ी ||| tailor
ताजिकिस्तान ||| Tajikistan
टाका ||| taka
तालिबान ||| Taliban
तमिल ||| Tamil
तन्दूर ||| tandoor
साबूदाना ||| tapioca
तस्मानिया ||| Tasmania
स्वाद ||| taste
चाय ||| tea
चाय ||| tea
अध्यापक ||| teacher
केतली ||| teakettle
आँसू ||| tear
तकनीशियन ||| technician
तेहरान ||| Tehran
तेलंगाना ||| Telangana
तार ||| telegram
मन्दिर ||| temple
करोड़ ||| ten
ख़ैमा ||| tent
प्रदेश ||| territory
आतंकवाद ||| terrorism
टेस्ला ||| tesla
चुनौती ||| test
गवाही ||| testimony
पाठ्यपुस्तक ||| textbook
श्यामदेश ||| Thailand
चोरी ||| theft
प्रकरण ||| theme
प्रमेय ||| theorem
सिद्धान्त ||| theory
चोर ||| thief
जांघ ||| thigh
शाम ||| thimble
वस्तू ||| thing
प्यास ||| thirst
काँटा ||| thorn
विचार ||| thought
हज़ार ||| thousand
गला ||| throat
गर्दनमार ||| thug
गरज ||| thunder
तिब्बती ||| Tibetan
टिकट ||| ticket
बाघ ||| tiger
समय ||| time
बार ||| time
समय ||| time
काल ||| time
त्रपु ||| tin
थकाना ||| tire
थकान ||| tiredness
ऊतक ||| tissue
स्तन ||| tit
तंबाकू ||| tobacco
शौचालय ||| toilet
शौचालय ||| toilet
टमाटर ||| tomato
क़ब्र ||| tomb
जीभ ||| tongue
दाँत ||| tooth
दाँत ||| tooth
दाँत ||| tooth
तोरा ||| Torah
टार्च ||| torch
बलाघूर्ण ||| torque
कछुआ ||| tortoise
सितमगर ||| torturer
पर्यटक ||| tourist
शहर ||| town
खिलौना ||| toy
व्यापार ||| trade
ट्रेडमार्क ||| trademark
ट्रेन ||| train
ट्राम ||| tram
अनुवाद ||| translation
अनुवाद ||| translation
अनुवादक ||| translator
ट्रान्सनिस्ट्रिया ||| Transnistria
खुला ||| transparent
कूड़ेदान ||| trash
कूड़ा ||| trash
मुसाफ़िर ||| traveller
ख़िज़ाना ||| treasure
इलाज ||| treatment
पेड़ ||| tree
दम ||| trickery
त्रिकोणमिति ||| trigonometry
यात्रा ||| trip
त्रिपोली ||| Tripoli
ट्रॉल ||| troll
ट्रोल ||| troll
तकलीफ़ ||| trouble
छिन्‍न ||| truncation
सच ||| truth
सच ||| truth
ज़ार ||| tsar
मंगलवार ||| Tuesday
ट्यूनिशिया ||| Tunisia
सुरंग ||| tunnel
पगड़ी ||| turban
तुर्केस्तान ||| Turkestan
तुर्कमेनिस्तान ||| Turkmenistan
मोड़ ||| turn
कछुआ ||| turtle
तुथंखमुन ||| Tutankhamon
जुड़वाँ ||| twin
तरह ||| type
असुंदर ||| ugly
यूक्रेन ||| Ukraine
यूक्रेनी ||| Ukrainian
छाता ||| umbrella
छत्री ||| umbrella
अतुलनीय ||| uncomparable
बेरोज़गारी ||| unemployment
अमेरिका ||| United
ब्रह्माण्ड ||| universe
विश्वविद्यालय ||| university
इन्द्र ||| Uranus
उर्दू ||| Urdu
मूत्रनली ||| ureter
पेशाब ||| urine
upayogi ||| useful
उपयोगिता ||| usefulness
सदस्य ||| user
उज़बेक ||| Uzbek
उज़्बेकिस्तान ||| Uzbekistan
आवारा ||| vagabond
मिषि ||| valine
घाटी ||| valley
kimti ||| valuable
upayogita ||| value
मुरब्बा ||| varenye
वरुण ||| Varuna
वायु ||| Vayu
वेद ||| Veda
सब्ज़ी ||| vegetable
शिरा ||| vein
बरामदा ||| veranda
क्रिया ||| verb
लंबवत् ||| vertical
शीशी ||| vial
विक्टोरिया ||| Victoria
विक्टोरिया ||| Victoria
आहार ||| victuals
वियतनामी ||| Vietnamese
दर्शन ||| view
दर्शन ||| view
गांव ||| village
खलनायक ||| villain
खलनायक ||| villain
हिंसा ||| violence
हिंसा ||| violence
मर्दानगी ||| virility
वीज़ा ||| visa
श्यानता ||| viscosity
श्यानता ||| viscosity
विष्णु ||| Vishnu
वज़ीर ||| vizier
शब्दावली ||| vocabulary
वोदका ||| vodka
आवाज़ ||| voice
गिद्ध ||| vulture
योनि ||| vulva
फोल्क्सवागन ||| VW
वेतन ||| wage
वेटर ||| waiter
वेट्रेस ||| waitress
दीवार ||| wall
अखरोट ||| walnut
युद्ध ||| war
vastragara ||| wardrobe
वॉशिंगटन ||| Washington
घड़ी ||| watch
पानी ||| water
तरबूज़ ||| watermelon
लहर ||| wave
तरह ||| way
रास्ता ||| way
हथियार ||| weapon
मौसम ||| weather
ऋतु ||| weather
विचरक ||| web
जालपृष्ठ ||| web
विवाह ||| wedding
बुधवार ||| Wednesday
हफ़्ता ||| week
सप्ताहांत ||| weekend
कूआँ ||| well
औरत ||| wench
औरत ||| wench
पश्चिम ||| west
स्वप्नदोष ||| wet
/kyun/ ||| what
चक्र ||| wheel
व्हिस्की ||| whiskey
वेश्या ||| whore
विधवा ||| widow
पत्नी ||| wife
इच्छा ||| will
हवा ||| wind
खिड़की ||| window
श्वासनली ||| windpipe
शराब ||| wine
पंख ||| wing
सर्दी ||| winter
चुड़ैल ||| witch
गवाह ||| witness
भेड़िया ||| wolf
औरत ||| woman
गर्भ ||| womb
लक्डी ||| wood
हुदहुद ||| woodpecker
शब्द ||| word
काम ||| work
दुनिया ||| world
दुनिया ||| world
दुनिया ||| world
कीड़ा ||| worm
कलाई ||| wrist
लेखक ||| writer
अज्ञातव्यक्तिभीति ||| xenophobia
निक़ाब ||| yashmak
साल ||| year
ख़मीर ||| yeast
ख़मीर ||| yeast
येकातेरिनबर्ग ||| Yekaterinburg
योनि ||| yoni
जवानी ||| youth
जवान ||| youth
योयो ||| yo-yo
शून्य ||| zero
जस्ता ||| zinc
ज़ूलू ||| Zulu
का ||| 's
